…
nile <- tibble(
  year = as.numeric(time(Nile)),
  flow = as.numeric(Nile)
) |>
  mutate(
    lag_1 = lag(flow, 1),
    lag_2 = lag(flow, 2)
  ) |>
  tidyr::drop_na()

nile
#> # A tibble: 98 × 4
#>     year  flow lag_1 lag_2
#>    <dbl> <dbl> <dbl> <dbl>
#>  1  1873   963  1160  1120
#>  2  1874  1210   963  1160
#>  3  1875  1160  1210   963
#>  4  1876  1160  1160  1210
#>  5  1877   813  1160  1160
#>  6  1878  1230   813  1160
#>  7  1879  1370  1230   813
#>  8  1880  1140  1370  1230
#>  9  1881   995  1140  1370
#> 10  1882   935   995  1140
#> # ℹ 88 more rows
```
…
